<?xml version="1.0" encoding="utf-8"?>
<!-- Generator: Adobe Illustrator 25.4.1, SVG Export Plug-In . SVG Version: 6.00 Build 0)  -->
<svg version="1.1" id="Layer_1" xmlns="http://www.w3.org/2000/svg" xmlns:xlink="http://www.w3.org/1999/xlink" x="0px" y="0px"
	 viewBox="0 0 229.3 317.8" style="enable-background:new 0 0 229.3 317.8;" xml:space="preserve">
<style type="text/css">
	.st0{fill:#1B1B1B;}
	.st1{fill:#B61D15;}
	.st2{fill:#F13E2D;}
	.st3{fill:#FDFDFD;}
	.st4{font-family:'SegoeUIBlack';}
	.st5{font-size:69.5608px;}
	.st6{fill:#FFFFFF;stroke:#000000;stroke-miterlimit:10;}
	.st7{font-size:38.5306px;}
</style>
<g>
	<path class="st0" d="M32.7,141.3c0.1-0.5,0.3-1,0.4-1.5c2.2-5.2,4.7-10.3,7.5-15.2c0.2-0.2,0.4-0.5,0.5-0.7c0.3-0.5,0.7-1,1-1.6
		c0.2-0.3,0.4-0.7,0.6-1c1.7-2.2,3.4-4.4,5.1-6.6c0.2-0.6,0.6-0.9,1.1-1.3c0.5-0.3,0.9-0.7,1.2-1.3c1.5-1.9,3.2-3.6,5-5.1
		c0.4,0,0.6-0.2,0.6-0.6c7.5-7.1,16.1-12.4,25.6-16.3c14.3-5.9,29.1-7.9,44.4-5.9c19.8,2.7,36.8,11.1,50.9,25.3
		c10.4,10.6,17.6,23,21.7,37.3c2.4,8.3,3.6,16.9,3.2,25.6c-0.2,3.5-2.1,6.4-4.5,8.9c-6.3,6.4-14.4,9.7-22.7,12.5
		c-14.3,4.7-29,6.9-43.9,7.7c-0.4,0-0.9,0.1-1.4,0.4c1.1,0.1,2.2,0.3,3.3,0.4c1.1,0.1,2.2,0.3,3.4,0.4c11.3,0.8,22.5,2.6,33.5,5.6
		c8.5,2.3,16.8,5.2,24.1,10.4c3.5,2.5,6.6,5.5,8,9.8c0.9,2.8,0.5,5.6,0.3,8.4c-1.6,20.1-9,37.7-22.7,52.5c-6.5,7-14,13-22.4,17.6
		c-15.5,8.5-32.1,12-49.7,10.3c-10.7-1-20.8-3.7-30.3-8.5c-5.7-2.9-11.1-6.3-16.2-10.4c-12.5-9.9-21.3-22.4-27-37.2
		c-3.6-9.4-5.4-19.1-5.5-29.2c0-3,1.2-5.5,3.1-8c5.3-7,13-10,20.8-12.9c5.6-2.1,11.3-3.8,17.2-4.7c11.7-1.8,23.5-3.4,35.3-4.6
		c-6.7-0.3-13.4-1.1-20-1.9c-4-0.5-8-1.3-12-2.1c-2.7-0.5-5.4-1.5-8.1-2c-4.6-0.8-9-2.3-13.3-4.1c-2-0.8-3.8-2.1-5.9-2.8
		c-4.1-1.3-7.1-4.3-10.7-6.3c-1.7-1-2.6-2.9-3.5-4.5c-1-1.8-2.5-3.4-2.6-5.7c-0.2-6.2,0.6-12.3,1.5-18.4c0.5-3.2,2-6.1,2.6-9.3
		C32.1,143.7,32.4,142.5,32.7,141.3z M114.5,199.9c8.5,0.3,17-0.2,25.4-1.1c5.4-0.6,10.8-0.9,16.1-2.4c2.8-0.8,5.7-0.7,8.5-1.5
		c6.1-1.7,12.1-3.9,18-6.4c5.3-2.3,10.3-5.2,14.2-9.7c1.5-1.8,2.5-3.9,2.7-6.5c0.5-4.6-1.8-7.7-4.8-10.5c-5-4.6-11-7.4-17.3-9.7
		c-7.8-2.9-15.9-4.8-24-6.2c-3.2-0.6-6.4-1.2-9.7-1.3c-1,0-1.7,0.1-1.8,1.3c-0.9,6.5-4.1,11.8-8.7,16.2c-3.6,3.5-8,5.5-12.9,6.5
		c-6.8,1.4-13.3,0.4-19.1-3c-7.2-4.2-12-10.4-13.4-18.8c-0.3-2-1.1-2.6-3-2.3c-0.5,0.1-1,0.1-1.5,0.2c-3.8,0.8-7.7,1.1-11.5,2
		c-5.6,1.2-11.3,2.4-16.7,4.3c-2.8,1-5.6,2.1-8.4,3.3c-4.9,2.1-9.6,4.7-13.3,8.6c-3.3,3.6-4.9,7.7-2.7,12.6c2,4.3,5.6,7.1,9.4,9.5
		c5,3.1,10.4,5.3,16,7c1.7,0.5,2.9,1.9,4.8,1.8c1-0.1,1.9,0.2,2.8,0.5c2.9,0.8,5.8,1.4,8.7,2.2c1.6,0.5,3.1,0.1,4.7,0.5
		c6.6,1.5,13.4,1.8,20.1,2.5C102.8,200.2,108.7,199.9,114.5,199.9z M114.7,85.6c-5.7-0.1-11.3,0.4-16.8,1.5c-5.1,1-10,2.4-14.8,4.3
		c-8,3.2-15.3,7.4-22,12.9c-7.2,5.9-13.4,12.5-18.4,20.3c-6,9.4-10,19.7-12,30.7c-0.4,2.3-1.2,4.6-0.9,7.1c0.1,0.4-0.1,1,0.4,1.1
		c0.4,0.1,0.7-0.3,0.9-0.6c3.6-4.4,8.4-7.2,13.4-9.6c5.9-2.8,12.1-4.8,18.5-6.4c7.4-1.9,15-3.1,22.5-4.3c1.3-0.2,2-0.5,1.9-1.9
		c-0.2-2.8,0.6-5.5,1.5-8.1c2.9-8.3,8.6-13.7,16.8-16.6c4.9-1.7,9.9-1.9,15-0.7c6.1,1.4,11.1,4.5,15,9.4c3.8,4.8,6.1,10.2,6,16.5
		c0,0.7,0.1,1.5,1.1,1.4c1.7-0.1,3.2,0.6,4.8,0.7c5.3,0.5,10.6,1.6,15.7,2.9c6,1.5,11.9,3.1,17.6,5.5c6,2.6,11.9,5.5,16.4,10.4
		c0.4,0.5,0.8,1.4,1.6,1c0.7-0.3,0.4-1.3,0.3-1.9c-0.6-5.1-1.6-10.2-3.1-15.1c-3.6-11.3-9.1-21.6-16.8-30.7
		c-8.9-10.5-19.8-18.3-32.4-23.5C136.6,87.5,125.8,85.3,114.7,85.6z M116.7,216.4c-18.8-0.1-36.3,2.1-53.1,7.8
		c-9.8,3.3-19.1,7.8-27.1,14.5c-2.2,1.9-2.3,2,0.1,3.8c7.7,5.8,16.7,8.6,25.8,11.1c7.1,1.9,14.2,3.3,21.5,4c3.3,0.3,5.6,1.1,5.2,5
		c0,0.1,0,0.1,0,0.2c3,11.4,12.7,19.1,23.6,19.9c13,1,25.2-8.1,27.6-21c0.6-3.2,0.6-3.2,3.9-3.8c0.7-0.1,1.4-0.3,2-0.4
		c11.2-1.4,22.2-3.8,32.8-7.8c5.2-2,10.1-4.4,14.5-7.9c1.1-0.8,1.3-1.5,0.1-2.5c-2.3-2-4.7-3.8-7.2-5.4c-12.7-8.1-26.7-12.4-41.4-15
		C135.1,217.2,125,216.3,116.7,216.4z M195.7,256.2c-1.1,0-1.5,0.6-2,0.9c-4.3,3.1-8.9,5.7-13.8,7.8c-13.2,5.6-27.1,8.5-41.3,10
		c-1.7,0.2-3,0.7-4.3,2c-11,10.8-28.8,10.7-39.7-0.2c-0.8-0.8-1.6-1.3-2.8-1.4c-10.4-1.1-20.7-2.8-30.7-5.8
		c-9.2-2.7-18-6.4-25.7-12.3c-0.5-0.3-0.8-1-1.6-0.6c9.9,34,46.9,65.1,93.9,58.1c15.9-2.4,30-9,42.2-19.5
		C182.2,284.7,190.8,271.8,195.7,256.2z M114.5,160.5c10.1,0,18.7-8.4,18.8-18.6c0.1-10.2-8.5-18.9-18.6-18.9
		c-10.2,0-18.8,8.4-18.9,18.5C95.7,151.9,104.1,160.4,114.5,160.5z"/>
	<path class="st1" d="M114.5,199.9c-5.8-0.1-11.7,0.3-17.5-0.4c-6.7-0.8-13.5-1-20.1-2.5c-1.5-0.4-3.1,0-4.7-0.5
		c-2.9-0.8-5.8-1.5-8.7-2.2c-0.9-0.2-1.8-0.5-2.8-0.5c-1.9,0.2-3.2-1.3-4.8-1.8c-5.6-1.7-11-3.9-16-7c-3.9-2.4-7.5-5.2-9.4-9.5
		c-2.2-4.8-0.6-9,2.7-12.6c3.7-4,8.4-6.5,13.3-8.6c2.8-1.2,5.5-2.3,8.4-3.3c5.5-1.9,11.1-3.1,16.7-4.3c3.8-0.8,7.7-1.2,11.5-2
		c0.5-0.1,1-0.1,1.5-0.2c1.8-0.3,2.6,0.3,3,2.3c1.4,8.4,6.2,14.6,13.4,18.8c5.8,3.4,12.4,4.4,19.1,3c4.9-1,9.3-3,12.9-6.5
		c4.6-4.4,7.9-9.7,8.7-16.2c0.2-1.2,0.9-1.3,1.8-1.3c3.3,0.1,6.5,0.7,9.7,1.3c8.1,1.5,16.2,3.4,24,6.2c6.3,2.3,12.3,5.1,17.3,9.7
		c3,2.8,5.3,5.9,4.8,10.5c-0.3,2.5-1.2,4.7-2.7,6.5c-3.8,4.5-8.8,7.4-14.2,9.7c-5.8,2.5-11.8,4.7-18,6.4c-2.8,0.7-5.7,0.7-8.5,1.5
		c-5.2,1.5-10.7,1.8-16.1,2.4C131.5,199.7,123,200.2,114.5,199.9z"/>
	<path class="st2" d="M114.7,85.6c11.1-0.3,21.9,1.9,32.2,6.2c12.6,5.3,23.5,13,32.4,23.5c7.7,9.1,13.2,19.3,16.8,30.7
		c1.5,4.9,2.6,10,3.1,15.1c0.1,0.7,0.4,1.6-0.3,1.9c-0.8,0.4-1.2-0.5-1.6-1c-4.5-5-10.4-7.8-16.4-10.4c-5.7-2.5-11.6-4.1-17.6-5.5
		c-5.2-1.3-10.4-2.3-15.7-2.9c-1.6-0.2-3.2-0.8-4.8-0.7c-1,0.1-1.1-0.7-1.1-1.4c0.1-6.3-2.1-11.7-6-16.5c-3.9-4.8-8.9-8-15-9.4
		c-5.1-1.2-10.1-1-15,0.7c-8.2,2.9-13.9,8.4-16.8,16.6c-0.9,2.6-1.7,5.3-1.5,8.1c0.1,1.4-0.6,1.7-1.9,1.9
		c-7.6,1.2-15.1,2.3-22.5,4.3c-6.4,1.6-12.6,3.6-18.5,6.4c-5,2.4-9.7,5.3-13.4,9.6c-0.2,0.3-0.5,0.7-0.9,0.6
		c-0.6-0.1-0.4-0.7-0.4-1.1c-0.3-2.4,0.5-4.8,0.9-7.1c2-11,6-21.3,12-30.7c5-7.8,11.2-14.4,18.4-20.3c6.7-5.5,14.1-9.7,22-12.9
		c4.8-1.9,9.7-3.3,14.8-4.3C103.4,86,108.9,85.5,114.7,85.6z M102.2,91.7c-3.8,0.6-7.7,1.7-11.6,3c-12.1,4.2-22.8,10.4-31.8,19.7
		c-2.8,2.9-5.4,6.2-7.4,9.7c-0.4,0.7-0.9,1.4,0,2c1,0.6,1.5-0.3,1.9-0.9c0.6-0.9,1.2-1.9,1.8-2.9c6.5-9.3,15.3-15.9,25.3-21
		c6.9-3.5,14.2-6.2,21.9-7.4c0.8-0.1,1.9-0.2,1.8-1.5C104.1,91.5,103.2,91.7,102.2,91.7z M46.4,135.6c0,0.8,0,1.4,0.7,1.6
		c0.6,0.2,1.2-0.1,1.4-0.7c0.6-1.6,1.2-3.2,1.7-4.8c0.2-0.5,0.1-1.2-0.6-1.4c-0.6-0.2-1.2-0.1-1.5,0.5
		C47.5,132.4,46.7,134,46.4,135.6z"/>
	<path class="st3" d="M116.7,216.4c8.3-0.2,18.4,0.7,28.4,2.5c14.6,2.7,28.7,6.9,41.4,15c2.5,1.6,4.9,3.5,7.2,5.4
		c1.2,1,0.9,1.6-0.1,2.5c-4.4,3.5-9.3,5.9-14.5,7.9c-10.6,4-21.6,6.4-32.8,7.8c-0.7,0.1-1.4,0.3-2,0.4c-3.3,0.6-3.3,0.6-3.9,3.8
		c-2.4,12.9-14.6,22-27.6,21c-11-0.8-20.6-8.5-23.6-19.9c0-0.1-0.1-0.1,0-0.2c0.4-3.9-1.9-4.6-5.2-5c-7.3-0.7-14.4-2.1-21.5-4
		c-9.1-2.5-18.1-5.3-25.8-11.1c-2.4-1.8-2.3-2-0.1-3.8c8.1-6.7,17.3-11.1,27.1-14.5C80.4,218.5,97.8,216.4,116.7,216.4z"/>
	<path class="st3" d="M195.7,256.2c-4.9,15.6-13.5,28.5-25.7,39c-12.2,10.5-26.3,17.2-42.2,19.5c-47,7-84.1-24-93.9-58.1
		c0.8-0.4,1.1,0.3,1.6,0.6c7.8,5.8,16.5,9.5,25.7,12.3c10.1,3,20.4,4.6,30.7,5.8c1.1,0.1,2,0.6,2.8,1.4
		c10.8,10.8,28.7,10.9,39.7,0.2c1.3-1.2,2.6-1.8,4.3-2c14.2-1.5,28.1-4.4,41.3-10c4.9-2.1,9.5-4.6,13.8-7.8
		C194.2,256.8,194.6,256.3,195.7,256.2z"/>
	<path class="st3" d="M114.5,160.5c-10.4,0-18.8-8.6-18.7-19c0.1-10.1,8.7-18.5,18.9-18.5c10.2,0,18.7,8.7,18.6,18.9
		C133.2,152,124.6,160.5,114.5,160.5z M114.7,130.1c-6.6,0-11.8,5-11.8,11.6c0,6.4,5.1,11.7,11.5,11.8c6.5,0.1,11.8-5.2,11.8-11.7
		C126.2,135.3,121.1,130.1,114.7,130.1z"/>
	<path class="st3" d="M102.2,91.7c0.9,0,1.8-0.2,1.9,0.8c0.1,1.2-1,1.3-1.8,1.5c-7.7,1.2-15,3.8-21.9,7.4c-10,5.1-18.8,11.7-25.3,21
		c-0.6,0.9-1.2,1.9-1.8,2.9c-0.5,0.7-0.9,1.6-1.9,0.9c-0.9-0.6-0.4-1.3,0-2c2-3.6,4.6-6.8,7.4-9.7c8.9-9.2,19.7-15.5,31.8-19.7
		C94.5,93.3,98.4,92.3,102.2,91.7z"/>
	<path class="st3" d="M46.4,135.6c0.3-1.6,1.1-3.1,1.7-4.7c0.2-0.6,0.9-0.7,1.5-0.5c0.7,0.2,0.8,0.8,0.6,1.4
		c-0.5,1.6-1.1,3.2-1.7,4.8c-0.2,0.6-0.8,0.8-1.4,0.7C46.4,136.9,46.4,136.4,46.4,135.6z"/>
	<path class="st0" d="M114.7,130.1c6.4,0,11.5,5.2,11.5,11.7c0,6.5-5.3,11.7-11.8,11.7c-6.4-0.1-11.6-5.3-11.5-11.8
		C102.9,135.1,108,130,114.7,130.1z M114.3,151.6c5.6,0.1,10-4.2,10-9.8c0-5.4-4.3-9.9-9.7-9.9c-5.5-0.1-10,4.3-10,9.6
		C104.6,147.1,108.8,151.5,114.3,151.6z"/>
	<path class="st3" d="M114.3,151.6c-5.5,0-9.7-4.5-9.7-10.1c0.1-5.3,4.6-9.7,10-9.6c5.4,0.1,9.8,4.5,9.7,9.9
		C124.3,147.3,119.9,151.6,114.3,151.6z"/>
</g>
<text transform="matrix(1 0 0 1 36.157 59.1333)" class="st4 st5">Ops!</text>
<text transform="matrix(1 0 0 1 4.2347 199.7568)"><tspan x="0" y="0" class="st6 st4 st7">Página não </tspan><tspan x="-3.7" y="46.2" class="st6 st4 st7">encontrada!</tspan></text>
</svg>
